<svg xmlns="http://www.w3.org/2000/svg" width="18" height="18" viewBox="0 0 18 18">
  <g id="Group_112" data-name="Group 112" transform="translate(1612 733) rotate(180)">
    <ellipse id="Ellipse_38" data-name="Ellipse 38" cx="9" cy="9" rx="9" ry="9" transform="translate(1612 733) rotate(180)" fill="#667b6e"/>
    <path id="Path_600" data-name="Path 600" d="M-126.5,188.173a.285.285,0,0,1-.206.085.285.285,0,0,1-.206-.085.292.292,0,0,1,0-.412l3.626-3.626-3.626-3.626a.292.292,0,0,1,0-.412.292.292,0,0,1,.412,0l3.832,3.832a.292.292,0,0,1,0,.412Zm0,0" transform="translate(1728.762 539.983)" fill="#fff" stroke="#fff" stroke-width="1"/>
  </g>
</svg>
