<svg xmlns="http://www.w3.org/2000/svg" width="43" height="43" viewBox="0 0 43 43">
  <g id="Group_205" data-name="Group 205" transform="translate(-365 -675)">
    <circle id="Ellipse_18" data-name="Ellipse 18" cx="21.5" cy="21.5" r="21.5" transform="translate(365 675)" fill="#667b6e"/>
    <path id="Path_2" data-name="Path 2" d="M-125.7,201.269a.743.743,0,0,1-.537.222.741.741,0,0,1-.537-.222.76.76,0,0,1,0-1.074l9.445-9.445-9.445-9.443a.76.76,0,0,1,0-1.074.76.76,0,0,1,1.074,0l9.981,9.981a.76.76,0,0,1,0,1.074Zm0,0" transform="translate(263 886.992) rotate(180)" fill="#fff" stroke="#fff" stroke-width="1"/>
  </g>
</svg>
