<svg xmlns="http://www.w3.org/2000/svg" width="43.348" height="60.1" viewBox="0 0 43.348 60.1">
  <path id="Path_598" data-name="Path 598" d="M-13.592,90.764A2.734,2.734,0,0,1-15.41,90.1a1.665,1.665,0,0,0-1.157-.446,1.662,1.662,0,0,0-1.155.444,2.74,2.74,0,0,1-1.82.667,2.739,2.739,0,0,1-1.819-.665,1.659,1.659,0,0,0-1.156-.446,1.661,1.661,0,0,0-1.157.446,2.737,2.737,0,0,1-1.818.665,3.121,3.121,0,0,1-.416-.027,3.09,3.09,0,0,1-2.124-1.312,3.208,3.208,0,0,1-.482-2.548l1.758-7.527-.234-.12a1.327,1.327,0,0,1-.68-.846l-1.042-4.008a1.318,1.318,0,0,1,.212-1.112l.138-.189L-38.678,57.6h-1.048a1.441,1.441,0,0,1-1.439-1.439V50.006A1.441,1.441,0,0,1-40.2,48.65l.163-.057.048-.166a3.644,3.644,0,0,1,.344-.811,2.473,2.473,0,0,0,0-2.465,3.533,3.533,0,0,1,0-3.571,3.534,3.534,0,0,1,3.092-1.786,2.472,2.472,0,0,0,2.135-1.233,3.6,3.6,0,0,1,3.111-1.781,3.555,3.555,0,0,1,.976.136l.251.072.131-.225a4.336,4.336,0,0,1,3.781-2.172,3.282,3.282,0,0,0,2.834-1.637,4.335,4.335,0,0,1,3.792-2.189,4.334,4.334,0,0,1,3.792,2.189,3.283,3.283,0,0,0,2.835,1.637,4.336,4.336,0,0,1,3.781,2.172l.131.225.251-.072a3.554,3.554,0,0,1,.976-.136,3.6,3.6,0,0,1,3.111,1.781A2.472,2.472,0,0,0-2.53,39.793,3.534,3.534,0,0,1,.562,41.579a3.534,3.534,0,0,1,0,3.571,2.473,2.473,0,0,0,0,2.465,3.64,3.64,0,0,1,.344.811l.048.166.163.057a1.441,1.441,0,0,1,.964,1.356v6.152A1.441,1.441,0,0,1,.643,57.6H-.405l-3.574,5.362a.553.553,0,0,1-.461.247.55.55,0,0,1-.306-.093.55.55,0,0,1-.236-.352.549.549,0,0,1,.082-.415L-1.734,57.6H-37.35l10.078,15.12h6.187a.553.553,0,0,1,.553.553.553.553,0,0,1-.553.553h-6.629l1.157,4.449h14.032l1.156-4.449h-6.514a.553.553,0,0,1-.553-.553.553.553,0,0,1,.553-.553h6.072l5.088-7.633a.552.552,0,0,1,.461-.246.551.551,0,0,1,.306.093A.553.553,0,0,1-5.8,65.7l-4.917,7.378.138.189a1.319,1.319,0,0,1,.213,1.112l-1.042,4.009a1.328,1.328,0,0,1-.68.846l-.234.12,1.759,7.527a3.211,3.211,0,0,1-.483,2.548,3.09,3.09,0,0,1-2.124,1.312A3.137,3.137,0,0,1-13.592,90.764Zm-2.974-2.217a2.738,2.738,0,0,1,1.818.665,1.662,1.662,0,0,0,1.156.446,2.032,2.032,0,0,0,.27-.017,1.957,1.957,0,0,0,1.361-.845,2.1,2.1,0,0,0,.316-1.668l-1.811-7.752h-3.782l1.465,4.528a.554.554,0,0,1-.356.7.56.56,0,0,1-.171.027.551.551,0,0,1-.526-.383L-18.4,79.377h-2.283l-1.574,4.868a.551.551,0,0,1-.526.383.544.544,0,0,1-.169-.027.554.554,0,0,1-.357-.7l1.464-4.528h-3.782l-1.811,7.752a2.1,2.1,0,0,0,.316,1.669,1.957,1.957,0,0,0,1.361.844,2.014,2.014,0,0,0,.269.017,1.662,1.662,0,0,0,1.155-.444,2.74,2.74,0,0,1,1.82-.667,2.738,2.738,0,0,1,1.819.665,1.663,1.663,0,0,0,1.156.446,1.661,1.661,0,0,0,1.155-.445A2.739,2.739,0,0,1-16.567,88.547ZM-40.06,56.494h7.593l.1-.657A3.537,3.537,0,0,1-34.418,54.2a2.473,2.473,0,0,0-2.135-1.233,3.518,3.518,0,0,1-2.9-1.488l-.61-.856Zm16.073-4.21a3.524,3.524,0,0,1-2.112.687A2.473,2.473,0,0,0-28.233,54.2a3.537,3.537,0,0,1-2.048,1.631l.1.657H-8.9l.1-.657a3.538,3.538,0,0,1-2.044-1.63,2.472,2.472,0,0,0-2.135-1.233,3.521,3.521,0,0,1-2.112-.686l-.273-.2-.2.275a3.145,3.145,0,0,0-.18.276,4.334,4.334,0,0,1-3.792,2.19,4.334,4.334,0,0,1-3.792-2.19c-.05-.086-.107-.173-.18-.275l-.2-.277Zm24.354-.8a3.518,3.518,0,0,1-2.9,1.487A2.473,2.473,0,0,0-4.666,54.2a3.536,3.536,0,0,1-2.044,1.63l.1.657H.979l0-5.86Zm-10.1-1.853A4.312,4.312,0,0,1-12.916,51a3.251,3.251,0,0,0-.816.1l-1.124.291,1.105.354a2.5,2.5,0,0,0,.764.118,3.581,3.581,0,0,1,3.092,1.786,2.441,2.441,0,0,0,2.136,1.233,2.439,2.439,0,0,0,2.135-1.233A3.581,3.581,0,0,1-2.53,51.866,2.44,2.44,0,0,0-.4,50.633a2.439,2.439,0,0,0,0-2.465A3.58,3.58,0,0,1-.4,44.6a2.439,2.439,0,0,0,0-2.465A2.441,2.441,0,0,0-2.53,40.9a3.581,3.581,0,0,1-3.093-1.785,2.44,2.44,0,0,0-2.138-1.226,2.574,2.574,0,0,0-.56.061l-.306.068.047.31a4.318,4.318,0,0,1-.544,2.831,3.274,3.274,0,0,0-.437,1.624l0,.5.465-.189a3.531,3.531,0,0,1,1.34-.263,3.556,3.556,0,0,1,3.552,3.551,3.556,3.556,0,0,1-3.552,3.551,3.58,3.58,0,0,1-1.584-.374l-.224-.111ZM-31.322,37.887a2.441,2.441,0,0,0-2.139,1.226A3.58,3.58,0,0,1-36.553,40.9a2.441,2.441,0,0,0-2.136,1.233,2.442,2.442,0,0,0,0,2.465,3.582,3.582,0,0,1,0,3.572,2.441,2.441,0,0,0,0,2.465,2.441,2.441,0,0,0,2.136,1.233,3.581,3.581,0,0,1,3.092,1.785,2.441,2.441,0,0,0,2.135,1.233,2.44,2.44,0,0,0,2.135-1.233A3.581,3.581,0,0,1-26.1,51.866a2.494,2.494,0,0,0,.763-.119l1.1-.354-1.123-.291a3.246,3.246,0,0,0-.815-.1,4.308,4.308,0,0,1-3.179-1.366l-.171-.182-.224.112a3.574,3.574,0,0,1-1.584.373,3.555,3.555,0,0,1-3.552-3.551,3.555,3.555,0,0,1,3.552-3.551,3.533,3.533,0,0,1,1.34.263l.465.189,0-.5a3.28,3.28,0,0,0-.436-1.624,4.315,4.315,0,0,1-.544-2.831l.047-.31-.306-.068A2.576,2.576,0,0,0-31.322,37.887Zm11.78-6.017a3.239,3.239,0,0,0-2.834,1.636,4.391,4.391,0,0,1-3.792,2.19A3.239,3.239,0,0,0-29,37.332,3.238,3.238,0,0,0-29,40.6a4.392,4.392,0,0,1,0,4.379,3.238,3.238,0,0,0,0,3.272,3.239,3.239,0,0,0,2.834,1.637,4.391,4.391,0,0,1,3.792,2.189,3.24,3.24,0,0,0,2.834,1.637,3.24,3.24,0,0,0,2.835-1.637,4.39,4.39,0,0,1,3.792-2.189,3.24,3.24,0,0,0,2.835-1.636,3.241,3.241,0,0,0,0-3.273,4.391,4.391,0,0,1,0-4.378,3.24,3.24,0,0,0,0-3.273A3.24,3.24,0,0,0-12.916,35.7a4.391,4.391,0,0,1-3.792-2.189A3.239,3.239,0,0,0-19.542,31.87ZM-7.758,43.937a2.452,2.452,0,0,0-1.1.261l-.3.152.152.3a4.29,4.29,0,0,1,.165,3.572l-.125.313.314.123a2.433,2.433,0,0,0,.894.169,2.449,2.449,0,0,0,2.446-2.446A2.449,2.449,0,0,0-7.758,43.937Zm-23.568,0a2.449,2.449,0,0,0-2.446,2.446,2.449,2.449,0,0,0,2.446,2.446,2.433,2.433,0,0,0,.894-.169l.314-.123-.125-.313a4.289,4.289,0,0,1,.165-3.572l.152-.3-.3-.151A2.459,2.459,0,0,0-31.326,43.937Zm11.784,3.4a4.548,4.548,0,0,1-4.543-4.543,4.548,4.548,0,0,1,4.543-4.542A4.548,4.548,0,0,1-15,42.794,4.548,4.548,0,0,1-19.542,47.336Zm0-7.979a3.441,3.441,0,0,0-3.437,3.437,3.441,3.441,0,0,0,3.437,3.437,3.441,3.441,0,0,0,3.437-3.437A3.441,3.441,0,0,0-19.542,39.357Z" transform="translate(41.216 -30.714)" fill="#a9b9af" stroke="#a9b9af" stroke-width="0.1"/>
</svg>
