<svg xmlns="http://www.w3.org/2000/svg" width="30.043" height="41.563" viewBox="0 0 30.043 41.563">
  <path id="Path_596" data-name="Path 596" d="M-22.2,72.027a1.88,1.88,0,0,1-1.25-.458,1.145,1.145,0,0,0-.8-.307,1.143,1.143,0,0,0-.794.306,1.884,1.884,0,0,1-1.252.458,1.884,1.884,0,0,1-1.251-.458,1.141,1.141,0,0,0-.8-.306,1.142,1.142,0,0,0-.8.306,1.882,1.882,0,0,1-1.251.458,2.145,2.145,0,0,1-.286-.019,2.125,2.125,0,0,1-1.461-.9,2.206,2.206,0,0,1-.332-1.752l1.209-5.176-.161-.082a.913.913,0,0,1-.468-.582l-.717-2.757a.906.906,0,0,1,.146-.765l.095-.13-7.094-10.644h-.721a.991.991,0,0,1-.99-.989V44a.991.991,0,0,1,.663-.933l.112-.04.033-.114a2.506,2.506,0,0,1,.237-.557,1.7,1.7,0,0,0,0-1.7,2.43,2.43,0,0,1,0-2.456,2.43,2.43,0,0,1,2.127-1.228,1.7,1.7,0,0,0,1.468-.848,2.472,2.472,0,0,1,2.14-1.225,2.445,2.445,0,0,1,.671.094l.173.049.09-.155a2.982,2.982,0,0,1,2.6-1.494A2.257,2.257,0,0,0-28.9,32.27a2.981,2.981,0,0,1,2.608-1.506,2.981,2.981,0,0,1,2.608,1.506A2.257,2.257,0,0,0-21.738,33.4a2.982,2.982,0,0,1,2.6,1.494l.09.155.173-.049A2.444,2.444,0,0,1-18.2,34.9a2.472,2.472,0,0,1,2.139,1.225,1.7,1.7,0,0,0,1.468.848A2.43,2.43,0,0,1-12.469,38.2a2.431,2.431,0,0,1,0,2.456,1.7,1.7,0,0,0,0,1.7,2.5,2.5,0,0,1,.237.558l.033.114.112.039a.991.991,0,0,1,.663.933v4.231a.991.991,0,0,1-.99.99h-.721l-2.458,3.688a.38.38,0,0,1-.317.17.378.378,0,0,1-.21-.064.378.378,0,0,1-.162-.242.377.377,0,0,1,.056-.285l2.177-3.266H-38.541l6.931,10.4h4.255a.381.381,0,0,1,.38.38.381.381,0,0,1-.38.38h-4.559l.8,3.06h9.65l.8-3.06h-4.479a.381.381,0,0,1-.38-.38.381.381,0,0,1,.38-.38h4.176l3.5-5.249a.38.38,0,0,1,.317-.17.379.379,0,0,1,.211.064.38.38,0,0,1,.105.527l-3.382,5.074.095.13a.907.907,0,0,1,.146.765l-.717,2.757a.914.914,0,0,1-.468.582l-.161.082,1.209,5.176a2.208,2.208,0,0,1-.332,1.752,2.125,2.125,0,0,1-1.461.9A2.156,2.156,0,0,1-22.2,72.027ZM-24.249,70.5A1.883,1.883,0,0,1-23,70.96a1.143,1.143,0,0,0,.8.306,1.4,1.4,0,0,0,.185-.012,1.346,1.346,0,0,0,.936-.581,1.447,1.447,0,0,0,.217-1.147L-22.109,64.2h-2.6L-23.7,67.31a.381.381,0,0,1-.245.479.386.386,0,0,1-.117.019.379.379,0,0,1-.362-.263L-25.51,64.2h-1.57l-1.083,3.348a.379.379,0,0,1-.362.263.374.374,0,0,1-.116-.019.381.381,0,0,1-.245-.479l1.007-3.114h-2.6l-1.246,5.331a1.447,1.447,0,0,0,.218,1.148,1.346,1.346,0,0,0,.936.58,1.385,1.385,0,0,0,.185.012,1.143,1.143,0,0,0,.794-.305,1.884,1.884,0,0,1,1.252-.459,1.883,1.883,0,0,1,1.251.458,1.144,1.144,0,0,0,.8.306,1.143,1.143,0,0,0,.795-.306A1.884,1.884,0,0,1-24.249,70.5ZM-40.405,48.459h5.222l.066-.452a2.432,2.432,0,0,1-1.408-1.122,1.7,1.7,0,0,0-1.468-.848,2.419,2.419,0,0,1-1.994-1.024l-.419-.589Zm11.054-2.9a2.424,2.424,0,0,1-1.452.473,1.7,1.7,0,0,0-1.468.848,2.432,2.432,0,0,1-1.408,1.122l.067.452h14.635l.067-.452a2.433,2.433,0,0,1-1.406-1.121,1.7,1.7,0,0,0-1.468-.848,2.421,2.421,0,0,1-1.453-.472l-.187-.139-.137.189a2.163,2.163,0,0,0-.124.189,2.98,2.98,0,0,1-2.608,1.506A2.981,2.981,0,0,1-28.9,45.8c-.034-.059-.073-.119-.124-.189l-.137-.191Zm16.749-.55A2.419,2.419,0,0,1-14.6,46.037a1.7,1.7,0,0,0-1.468.848,2.432,2.432,0,0,1-1.405,1.121l.067.452h5.22v-4.03Zm-6.949-1.275a2.965,2.965,0,0,1-2.186.94,2.236,2.236,0,0,0-.561.072l-.773.2.76.244a1.722,1.722,0,0,0,.526.081A2.463,2.463,0,0,1-19.659,46.5a1.679,1.679,0,0,0,1.469.848,1.677,1.677,0,0,0,1.468-.848A2.463,2.463,0,0,1-14.6,45.276a1.678,1.678,0,0,0,1.468-.848,1.677,1.677,0,0,0,0-1.7,2.462,2.462,0,0,1,0-2.456,1.678,1.678,0,0,0,0-1.7,1.679,1.679,0,0,0-1.468-.848,2.463,2.463,0,0,1-2.127-1.228,1.678,1.678,0,0,0-1.471-.843,1.77,1.77,0,0,0-.385.042l-.21.047.032.213a2.97,2.97,0,0,1-.374,1.947,2.252,2.252,0,0,0-.3,1.117v.345l.32-.13a2.428,2.428,0,0,1,.921-.181,2.445,2.445,0,0,1,2.443,2.442,2.445,2.445,0,0,1-2.443,2.442,2.462,2.462,0,0,1-1.089-.257l-.154-.076ZM-34.4,35.663a1.679,1.679,0,0,0-1.471.843,2.462,2.462,0,0,1-2.127,1.228,1.679,1.679,0,0,0-1.469.848,1.679,1.679,0,0,0,0,1.7,2.463,2.463,0,0,1,0,2.456,1.678,1.678,0,0,0,0,1.7,1.679,1.679,0,0,0,1.469.848A2.463,2.463,0,0,1-35.867,46.5a1.679,1.679,0,0,0,1.468.848A1.678,1.678,0,0,0-32.93,46.5,2.463,2.463,0,0,1-30.8,45.276a1.715,1.715,0,0,0,.525-.082l.759-.244-.772-.2a2.233,2.233,0,0,0-.56-.072,2.963,2.963,0,0,1-2.186-.94l-.118-.125-.154.077a2.458,2.458,0,0,1-1.09.257,2.445,2.445,0,0,1-2.442-2.442A2.445,2.445,0,0,1-34.4,39.063a2.43,2.43,0,0,1,.922.181l.319.13v-.345a2.256,2.256,0,0,0-.3-1.117,2.968,2.968,0,0,1-.374-1.947l.032-.213-.21-.047A1.771,1.771,0,0,0-34.4,35.663Zm8.1-4.138a2.228,2.228,0,0,0-1.949,1.125,3.02,3.02,0,0,1-2.608,1.506A2.228,2.228,0,0,0-32.8,35.281a2.227,2.227,0,0,0,0,2.251,3.02,3.02,0,0,1,0,3.011,2.227,2.227,0,0,0,0,2.251,2.227,2.227,0,0,0,1.949,1.126,3.02,3.02,0,0,1,2.608,1.506,2.228,2.228,0,0,0,1.949,1.126,2.228,2.228,0,0,0,1.949-1.126,3.019,3.019,0,0,1,2.608-1.506,2.228,2.228,0,0,0,1.949-1.125,2.229,2.229,0,0,0,0-2.251,3.02,3.02,0,0,1,0-3.011,2.228,2.228,0,0,0,0-2.251,2.228,2.228,0,0,0-1.949-1.125,3.02,3.02,0,0,1-2.608-1.505A2.228,2.228,0,0,0-26.295,31.525Zm8.1,8.3a1.686,1.686,0,0,0-.756.18l-.207.1.1.206a2.95,2.95,0,0,1,.114,2.456l-.086.216.216.085a1.673,1.673,0,0,0,.615.117,1.684,1.684,0,0,0,1.682-1.682A1.684,1.684,0,0,0-18.191,39.823Zm-16.208,0a1.684,1.684,0,0,0-1.682,1.682A1.684,1.684,0,0,0-34.4,43.187a1.673,1.673,0,0,0,.615-.117l.216-.085-.086-.216a2.95,2.95,0,0,1,.114-2.457l.1-.207-.207-.1A1.691,1.691,0,0,0-34.4,39.823Zm8.1,2.338a3.128,3.128,0,0,1-3.124-3.124,3.128,3.128,0,0,1,3.124-3.124,3.127,3.127,0,0,1,3.124,3.124A3.128,3.128,0,0,1-26.295,42.161Zm0-5.487a2.366,2.366,0,0,0-2.364,2.363A2.366,2.366,0,0,0-26.295,41.4a2.366,2.366,0,0,0,2.364-2.363A2.366,2.366,0,0,0-26.295,36.674Z" transform="translate(41.316 -30.614)" fill="#a9b9af" stroke="#a9b9af" stroke-width="0.3"/>
</svg>
