<svg xmlns="http://www.w3.org/2000/svg" width="51" height="34.603" viewBox="0 0 51 34.603">
  <path id="Path_592" data-name="Path 592" d="M-11.155,186.517a4.527,4.527,0,0,1-3.175-1.31,4.406,4.406,0,0,1-1.328-3.15,4.442,4.442,0,0,1,1.33-3.152,4.49,4.49,0,0,1,3.173-1.308,4.445,4.445,0,0,1,4.419,4.461A4.445,4.445,0,0,1-11.155,186.517Zm0-7.344a2.943,2.943,0,0,0-2.925,2.883,2.943,2.943,0,0,0,2.925,2.883,2.865,2.865,0,0,0,2.841-2.883A2.865,2.865,0,0,0-11.155,179.173Zm-25.619,7.344a4.53,4.53,0,0,1-3.176-1.311,4.408,4.408,0,0,1-1.327-3.15,4.443,4.443,0,0,1,1.329-3.152,4.494,4.494,0,0,1,3.173-1.308,4.445,4.445,0,0,1,4.419,4.461A4.445,4.445,0,0,1-36.774,186.517Zm0-7.344a2.943,2.943,0,0,0-2.925,2.883,2.943,2.943,0,0,0,2.925,2.883,2.865,2.865,0,0,0,2.841-2.883A2.865,2.865,0,0,0-36.774,179.173Zm6.924,1.29a.79.79,0,0,1-.789-.789.79.79,0,0,1,.789-.789h8.862V153.492H-46.141v6.89a.79.79,0,0,1-.789.789.79.79,0,0,1-.789-.789V152.7a.79.79,0,0,1,.789-.789h26.721a.79.79,0,0,1,.789.789v4.037h9.093a.769.769,0,0,1,.505.181l7.512,6.221a.844.844,0,0,1,.294.627L-2.1,179.663a.785.785,0,0,1-.789.779H-5.018a.79.79,0,0,1-.789-.789.79.79,0,0,1,.789-.789h1.35l.075-14.744-7.007-5.8h-8.81v20.568h2.369a.79.79,0,0,1,.789.789.79.79,0,0,1-.789.789Zm-17.08,0a.79.79,0,0,1-.789-.789v-3.84a.79.79,0,0,1,.789-.789.79.79,0,0,1,.789.789v3.051h2.369a.79.79,0,0,1,.789.789.79.79,0,0,1-.789.789Zm-5.3-6.767a.79.79,0,0,1-.789-.789.79.79,0,0,1,.789-.789H-39.5a.79.79,0,0,1,.789.789.781.781,0,0,1-.789.789Zm36.2-1.919a.79.79,0,0,1-.789-.789v-8.6a.79.79,0,0,1,.789-.789h5.382a.757.757,0,0,1,.524.2l3.162,2.847a.788.788,0,0,1,.26.583v5.76a.79.79,0,0,1-.789.789Zm.789-1.578h6.962v-4.625l-2.678-2.41h-4.284ZM-50.1,168.861a.774.774,0,0,1-.557-.233.774.774,0,0,1-.223-.561.786.786,0,0,1,.789-.783l12.734.074a.774.774,0,0,1,.557.233.774.774,0,0,1,.223.561.8.8,0,0,1-.8.783Zm2.139-4.763a.79.79,0,0,1-.789-.789.79.79,0,0,1,.789-.789h12.726a.79.79,0,0,1,.789.789.79.79,0,0,1-.789.789Z" transform="translate(53.016 -151.914)" fill="#fff"/>
</svg>
