<svg xmlns="http://www.w3.org/2000/svg" width="56.223" height="84.333" viewBox="0 0 56.223 84.333">
  <g id="Group_1623" data-name="Group 1623" transform="translate(-13567 64.667)">
    <path id="Path_1970" data-name="Path 1970" d="M113.444,0A28.114,28.114,0,0,0,88.708,41.47l23.2,41.957a1.757,1.757,0,0,0,3.075,0l23.207-41.971A28.116,28.116,0,0,0,113.444,0Z" transform="translate(13481.667 -64.667)" fill="#965250"/>
    <g id="Group_1622" data-name="Group 1622" transform="translate(12852.709 -554.61)">
      <g id="Group_1615" data-name="Group 1615" transform="translate(719.084 497.79)">
        <path id="Path_1962" data-name="Path 1962" d="M755.969,534.388a.215.215,0,0,0-.063.053,8,8,0,0,1-4.13,2.831,3.128,3.128,0,0,1-2.4-.111,5.058,5.058,0,0,1-2.3-2.755,14.827,14.827,0,0,1-1.032-5.5,31.087,31.087,0,0,1,.237-5.458c.048-.31.093-.623.136-.936a27.9,27.9,0,0,1,.525-2.909c.552-2.165,1.166-4.269,1.819-6.252.7-2.13,1.519-4.259,2.309-6.321l.025-.065c.507-1.327,1.06-2.664,1.592-3.959.164-.394.326-.79.487-1.183.356-.863.717-1.726,1.083-2.6l.6-1.436-.252.073a.59.59,0,0,1-.076.02.441.441,0,0,0-.172.063c-.189.141-.384.277-.575.414a16.546,16.546,0,0,0-1.373,1.055,21.581,21.581,0,0,0-2.889,3.338,72.419,72.419,0,0,0-4.365,6.868c-.389.679-.77,1.363-1.151,2.046l-.23.416c-.063.111-.1.129-.108.129s-.045.005-.139-.073a8.6,8.6,0,0,0-.934-.681,11.885,11.885,0,0,0-4.229-1.655.28.28,0,0,1-.257-.22c-.136-.419-.273-.83-.439-1.221a6.45,6.45,0,0,0-2.836-3.192,9.927,9.927,0,0,0-4.519-1.045,9.517,9.517,0,0,0-1.7.139l-.149.023a9.5,9.5,0,0,0-5.107,2.311,12.268,12.268,0,0,0-4.206,10.754,9.478,9.478,0,0,0,5.561,8.165,11.493,11.493,0,0,0,6.323,1.085,10.458,10.458,0,0,0,4.585-1.648,17.486,17.486,0,0,0,4-3.641,38.078,38.078,0,0,0,3.744-5.546c.207-.358.409-.721.616-1.087l.22-.394.023.023A8.222,8.222,0,0,1,746,520.92c-.063.495-.141,1-.219,1.486-.086.548-.174,1.115-.24,1.678-.129,1.148-.209,2.17-.24,3.126s0,1.91.033,2.841l.005.159a13.635,13.635,0,0,0,.5,3.28,7.076,7.076,0,0,0,1.6,3.025,5.2,5.2,0,0,0,3.694,1.574c.081.005.162.008.24.008a4.7,4.7,0,0,0,2.2-.568,6.374,6.374,0,0,0,2.566-2.652.724.724,0,0,0,.071-.268c.005-.04.01-.086.02-.134l.063-.318Zm-13.055-20.831a54.823,54.823,0,0,1-3.649,5.73,27.433,27.433,0,0,1-2.044,2.46A13.1,13.1,0,0,1,733,524.886a8.223,8.223,0,0,1-4.327.671,8.837,8.837,0,0,1-4.143-1.516,8.981,8.981,0,0,1-3.262-4.287A12.4,12.4,0,0,1,721.1,512a10.007,10.007,0,0,1,2.841-5,7.7,7.7,0,0,1,4-1.948,16.428,16.428,0,0,1,2.72-.242l.212,0a7.051,7.051,0,0,1,4.431,1.461,6.365,6.365,0,0,1,2.15,3.207.289.289,0,0,1,.013.083l-.272,0c-.278,0-.542-.005-.807.005a14.139,14.139,0,0,0-6.406,1.574,7.687,7.687,0,0,0-3.48,3.459,9.406,9.406,0,0,0-.474,1.322c-.063.2-.124.4-.192.6l-.038.114.336.131.081-.184a1.3,1.3,0,0,0,.078-.184,7.822,7.822,0,0,1,2.442-3.717,9.1,9.1,0,0,1,3.187-1.723,11.931,11.931,0,0,1,3.6-.6h.048c.479,0,.959,0,1.453,0h.568c0,.081,0,.159.005.237a6.644,6.644,0,0,1-.013.747,5.8,5.8,0,0,1-.588,2.077,6.242,6.242,0,0,1-1.7,2.233c-.775.611-1.574,1.239-2.4,1.842a6.281,6.281,0,0,1-.752.452c-.136.073-.278.149-.426.235l-.512.293.588-.058.126-.01a.427.427,0,0,0,.167-.028,14.179,14.179,0,0,0,4.224-2.859,6.6,6.6,0,0,0,1.781-3.454c.078-.381.129-.767.184-1.178q.027-.212.061-.439c.091.033.184.063.278.1.313.1.636.209.939.341a14.318,14.318,0,0,1,3.288,2.137C743.073,513.214,743.063,513.295,742.914,513.557Zm3.84,3.608a8.027,8.027,0,0,0-1.892-3.8.2.2,0,0,1-.035-.283q.715-1.344,1.423-2.687c1-1.892,2.036-3.848,3.086-5.755a31.281,31.281,0,0,1,2.155-3.323,8.808,8.808,0,0,1,1.09-1.168c.144-.139.29-.278.426-.414-.018.066-.033.126-.053.182-.278.729-.558,1.456-.835,2.185-.5,1.294-1.009,2.632-1.5,3.954-1.254,3.366-2.205,5.967-3.088,8.43-.2.57-.363,1.166-.515,1.744-.073.27-.144.537-.222.807Z" transform="translate(-719.084 -497.79)" fill="#fff" stroke="#fff" stroke-width="0.3"/>
      </g>
      <g id="Group_1616" data-name="Group 1616" transform="translate(756.837 533.902)">
        <path id="Path_1963" data-name="Path 1963" d="M869.929,641.277q-.254-.394-.537-.363c-.184.02-.343.184-.447.464a3.476,3.476,0,0,0-.161.744c-.015.109-.03.214-.05.321l-.023.126.076.013c0,.015,0,.028,0,.043a2.353,2.353,0,0,0,.008.351,1.466,1.466,0,0,0,.954,1.413.861.861,0,0,0,.29.053.607.607,0,0,0,.356-.108.594.594,0,0,0,.232-.512A4.61,4.61,0,0,0,869.929,641.277Zm.192,2.049c-.013.255-.045.346-.222.371s-.3-.015-.361-.3c-.053-.252-.086-.515-.116-.747-.013-.093-.025-.179-.035-.262.008-.076.01-.146.015-.215a2.3,2.3,0,0,1,.048-.391.3.3,0,0,1,.093-.111.258.258,0,0,1,.106.108c.04.1.086.2.131.3A2.745,2.745,0,0,1,870.12,643.326Z" transform="translate(-868.71 -640.911)" fill="#fff" stroke="#fff" stroke-width="0.3"/>
      </g>
      <g id="Group_1617" data-name="Group 1617" transform="translate(757.696 527.677)">
        <path id="Path_1964" data-name="Path 1964" d="M874.62,616.765c-.013-.025-.025-.061-.04-.1-.053-.146-.126-.343-.285-.406s-.338.035-.512.126a1.723,1.723,0,0,1-.154.078.384.384,0,0,0-.139.119.4.4,0,0,1-.03.033,5.614,5.614,0,0,0-1.163,2.273c-.05.159-.1.318-.159.474a.316.316,0,0,0,.05.318.4.4,0,0,0,.3.129.437.437,0,0,0,.081-.008,1.888,1.888,0,0,0,.686-.245,3.393,3.393,0,0,0,1.378-2.722l0-.038Zm-1.236,1.986a.675.675,0,0,1-.631.194.405.405,0,0,1,0-.048c.242-.5.53-1.085.833-1.663a.7.7,0,0,1,.222-.237.324.324,0,0,1,.172-.066.24.24,0,0,1,.066.136A2.714,2.714,0,0,1,873.384,618.751Z" transform="translate(-872.116 -616.241)" fill="#fff" stroke="#fff" stroke-width="0.3"/>
      </g>
      <g id="Group_1618" data-name="Group 1618" transform="translate(758.374 531.976)">
        <path id="Path_1965" data-name="Path 1965" d="M878.265,634.046a1.316,1.316,0,0,0-.469-.452,3.664,3.664,0,0,0-2.346-.232c-.03.005-.061.008-.091.01-.189.02-.5.05-.55.381-.058.368.242.575.464.732a3.087,3.087,0,0,0,1.857.495c.081,0,.164,0,.25.005.063,0,.126,0,.192,0a1.943,1.943,0,0,0,.242-.013.631.631,0,0,0,.522-.331A.615.615,0,0,0,878.265,634.046Zm-2.291.358a.534.534,0,0,1-.27-.177,1,1,0,0,1-.116-.278.162.162,0,0,0-.01-.033.137.137,0,0,0,.02-.01.883.883,0,0,1,.227-.071h.1a6.275,6.275,0,0,1,1.135.073,1.473,1.473,0,0,1,.641.351c.053.045.081.091.071.124s-.056.076-.159.093c-.157.028-.315.045-.495.063-.083.01-.172.018-.267.03-.066-.013-.136-.025-.207-.035C876.436,634.5,876.2,634.462,875.974,634.4Z" transform="translate(-874.801 -633.278)" fill="#fff" stroke="#fff" stroke-width="0.3"/>
      </g>
      <g id="Group_1619" data-name="Group 1619" transform="translate(754.408 528.754)">
        <path id="Path_1966" data-name="Path 1966" d="M861.633,622.367l-.023-.051a7.091,7.091,0,0,0-.578-1.168,1.328,1.328,0,0,0-1.135-.638h-.035c-.449,0-.636.161-.714.3s-.124.366.091.742a3.169,3.169,0,0,0,1.6,1.519.941.941,0,0,0,.305.055.484.484,0,0,0,.227-.05A.551.551,0,0,0,861.633,622.367Zm-.469.305c-.005.018-.01.04-.015.058a.256.256,0,0,1-.124-.045c-.065-.051-.136-.1-.2-.149a3.105,3.105,0,0,1-.994-.982c-.172-.313-.088-.419,0-.489a.29.29,0,0,1,.179-.066.156.156,0,0,1,.033,0,.369.369,0,0,1,.247.159c.26.336.5.7.724,1.052l.116.179a.429.429,0,0,1,.04.146c0,.025.008.05.013.078Z" transform="translate(-859.082 -620.51)" fill="#fff" stroke="#fff" stroke-width="0.3"/>
      </g>
      <g id="Group_1620" data-name="Group 1620" transform="translate(756.641 531.521)">
        <path id="Path_1967" data-name="Path 1967" d="M869.375,632.29v.023l-.008.02c-.013.035-.025.081-.04.131a2.635,2.635,0,0,1-.189.51.536.536,0,0,1-.487.356,1,1,0,0,1-.341-.076.615.615,0,0,1-.346-.77c.061-.192.129-.4.209-.6a.558.558,0,0,1,.727-.376A.722.722,0,0,1,869.375,632.29Z" transform="translate(-867.933 -631.477)" fill="#fff" stroke="#fff" stroke-width="0.3"/>
      </g>
      <g id="Group_1621" data-name="Group 1621" transform="translate(753.756 532.137)">
        <path id="Path_1968" data-name="Path 1968" d="M859.081,634.242a.562.562,0,0,0-.762-.262,14.4,14.4,0,0,0-1.4.81,1.034,1.034,0,0,0-.3.414,2.017,2.017,0,0,1-.1.179l-.023.038.005.045a.908.908,0,0,0,.444.689.623.623,0,0,0,.3.078.663.663,0,0,0,.283-.065,3.258,3.258,0,0,0,1.539-1.317A.713.713,0,0,0,859.081,634.242Zm-.381.343-.131.129c-.257.255-.522.517-.8.747a1.552,1.552,0,0,1-.388.194c-.055.02-.111.043-.169.068l-.068-.05c-.058-.04-.139-.1-.146-.129a.408.408,0,0,1,.035-.293,10.712,10.712,0,0,1,1.158-.714,1.118,1.118,0,0,1,.464-.1.316.316,0,0,1,.109.048A.3.3,0,0,1,858.7,634.585Z" transform="translate(-856.5 -633.915)" fill="#fff" stroke="#fff" stroke-width="0.3"/>
      </g>
    </g>
  </g>
</svg>
