<svg xmlns="http://www.w3.org/2000/svg" width="32.851" height="51" viewBox="0 0 32.851 51">
  <g id="Group_185" data-name="Group 185" transform="translate(-19 -94.93)">
    <path id="Path_648" data-name="Path 648" d="M48.622,94.93H22.229A3.232,3.232,0,0,0,19,98.159V142.7a3.232,3.232,0,0,0,3.229,3.229H48.622a3.232,3.232,0,0,0,3.229-3.229V98.159a3.232,3.232,0,0,0-3.229-3.229Zm-28,8.115H50.233v33.728H20.618Zm1.611-6.5H48.622a1.613,1.613,0,0,1,1.611,1.611v3.808H20.618V98.159a1.613,1.613,0,0,1,1.611-1.611Zm26.394,47.764H22.229a1.613,1.613,0,0,1-1.611-1.611v-4.849H50.233V142.7a1.613,1.613,0,0,1-1.611,1.611Zm0,0" fill="#a9b9af"/>
    <path id="Path_649" data-name="Path 649" d="M123.822,418.571a2.65,2.65,0,1,0,2.649,2.65,2.653,2.653,0,0,0-2.649-2.65Zm0,4.221a1.571,1.571,0,1,1,1.571-1.571,1.573,1.573,0,0,1-1.571,1.571Zm0,0" transform="translate(-88.396 -280.004)" fill="#a9b9af"/>
    <path id="Path_650" data-name="Path 650" d="M110.16,126.127H117.5a.539.539,0,0,0,0-1.079H110.16a.539.539,0,1,0,0,1.079Zm0,0" transform="translate(-78.402 -26.057)" fill="#a9b9af"/>
    <path id="Path_651" data-name="Path 651" d="M95.766,126.127a.538.538,0,1,0-.382-.157.542.542,0,0,0,.382.157Zm0,0" transform="translate(-65.949 -26.057)" fill="#a9b9af"/>
  </g>
</svg>
