{
  "fonts/alistair.svg": "fonts/alistair_6f599839.svg",
  "images/Clock.png": "images/Clock_2cb0c3e2.png",
  "images/Development.png": "images/Development_85518d70.png",
  "images/Equality.png": "images/Equality_d0e10425.png",
  "images/Fun.png": "images/Fun_7e3ce633.png",
  "images/Job Type.png": "images/Job Type_2cb0c3e2.png",
  "images/Loyalty.png": "images/Loyalty_c5180e67.png",
  "images/Reward.png": "images/Reward_ee43313c.png",
  "images/Team.png": "images/Team_9842bc27.png",
  "images/address-icon.svg": "images/address-icon_bc777ce2.svg",
  "images/alistair-logo-white.png": "images/alistair-logo-white_b95cc027.png",
  "images/alistair-logo.png": "images/alistair-logo_1b21b6f6.png",
  "images/arrow-circle-left-small.svg": "images/arrow-circle-left-small_d13b8c5b.svg",
  "images/arrow-circle-left.svg": "images/arrow-circle-left_20b58037.svg",
  "images/arrow-circle-right-small.svg": "images/arrow-circle-right-small_b8bc4942.svg",
  "images/arrow-circle-right.svg": "images/arrow-circle-right_04b334a3.svg",
  "images/bouquet-large.svg": "images/bouquet-large_a09d945f.svg",
  "images/bouquet-medium.svg": "images/bouquet-medium_3572d18b.svg",
  "images/bouquet-small.svg": "images/bouquet-small_2678757d.svg",
  "images/calendar-icon.svg": "images/calendar-icon_1f3664be.svg",
  "images/cart-icon.svg": "images/cart-icon_62c23f55.svg",
  "images/delivery-icon-white.svg": "images/delivery-icon-white_387ac564.svg",
  "images/delivery-icon.svg": "images/delivery-icon_28dc8337.svg",
  "images/desktop.ini": "images/desktop_e4cba319.ini",
  "images/dot-icon.svg": "images/dot-icon_db1e094a.svg",
  "images/down-arrow.svg": "images/down-arrow_7bc97fdc.svg",
  "images/email-icon.svg": "images/email-icon_f51bd9f2.svg",
  "images/flower-icon.svg": "images/flower-icon_f1c3b535.svg",
  "images/flower-pattern-left.png": "images/flower-pattern-left_43899a52.png",
  "images/flower-pattern-right.png": "images/flower-pattern-right_7935e326.png",
  "images/icon-arrow.png": "images/icon-arrow_0ebe09b9.png",
  "images/main-banner-min.jpg": "images/main-banner-min_b7267a49.jpg",
  "images/maltese-cross-icon.svg": "images/maltese-cross-icon_2c715fd3.svg",
  "images/map_marker.svg": "images/map_marker_54652061.svg",
  "images/mobile-icon.svg": "images/mobile-icon_17ef3dc0.svg",
  "images/newsletter-bg.jpg": "images/newsletter-bg_326e1b9d.jpg",
  "images/payments.png": "images/payments_88fe8780.png",
  "images/paypal-logo.png": "images/paypal-logo_545374f3.png",
  "images/phone-icon.svg": "images/phone-icon_72b1bbd9.svg",
  "images/revolut-logo-big.png": "images/revolut-logo-big_b8d69d61.png",
  "images/revolut-logo-small.png": "images/revolut-logo-small_110a197a.png",
  "images/revolut-step-1.png": "images/revolut-step-1_6690c367.png",
  "images/revolut-step-2.png": "images/revolut-step-2_65496cec.png",
  "images/revolut-step-3.png": "images/revolut-step-3_e87ad992.png",
  "images/revolut-step-4.png": "images/revolut-step-4_42002313.png",
  "images/revolut-step-5.png": "images/revolut-step-5_5955e5b8.png",
  "images/tick-circle-icon.svg": "images/tick-circle-icon_852ff7ad.svg",
  "images/tick-icon.svg": "images/tick-icon_84f9b5f0.svg",
  "images/tick-large.svg": "images/tick-large_fe1a80e4.svg",
  "images/tick-small.svg": "images/tick-small_6dc96573.svg",
  "images/timeline.png": "images/timeline_5f4b3b82.png",
  "images/timeline.svg": "images/timeline_8dc449b9.svg",
  "images/tips-tricks-image.jpg": "images/tips-tricks-image_395b0d4b.jpg",
  "vendor/ajax-loader.gif": "vendor/ajax-loader_c5cd7f53.gif",
  "vendor/flags.png": "vendor/flags_416250f6.png",
  "vendor/flags@2x.png": "vendor/flags@2x_d429a577.png",
  "vendor/ui-icons_444444_256x240.png": "vendor/ui-icons_444444_256x240_d10bc070.png",
  "vendor/ui-icons_555555_256x240.png": "vendor/ui-icons_555555_256x240_00dd0ec0.png",
  "vendor/ui-icons_777620_256x240.png": "vendor/ui-icons_777620_256x240_4e7e3e14.png",
  "vendor/ui-icons_777777_256x240.png": "vendor/ui-icons_777777_256x240_40bf2579.png",
  "vendor/ui-icons_cc0000_256x240.png": "vendor/ui-icons_cc0000_256x240_093a8191.png",
  "vendor/ui-icons_ffffff_256x240.png": "vendor/ui-icons_ffffff_256x240_ea4ebe07.png",
  "scripts/customizer.js": "scripts/customizer_8b0d4ba1.js",
  "styles/main.css": "styles/main_8b0d4ba1.css",
  "scripts/main.js": "scripts/main_8b0d4ba1.js"
}